 270
 273
 258
 204
 254
 228
 282
 278
 201
 264
 265
 223
 274
 230
 250
 275
 281
 271
 263
 277
 275
 278
 260
 262
 273
 274
 286
 236
 290
 286
 278
 283
 262
 277
 295
 274
 272
 265
 275
 263
 251
 289
 242
 284
 241
 276
 200
 278
 283
 269
 282
 267
 282
 272
 277
 261
 257
 278
 295
 270
 268
 286
 262
 272
 268
 283
 256
 206
 277
 252
 265
 263
 281
 268
 280
 289
 283
 263
 273
 209
 259
 287
 269
 277
 234
 282
 276
 272
 257
 267
 204
 270
 285
 273
 269
 284
 276
 286
 273
 289
 263
 270
 279
 206
 270
 270
 268
 218
 251
 252
 284
 278
 277
 208
 271
 208
 280
 269
 270
 294
 292
 289
 290
 215
 284
 283
 279
 275
 223
 220
 281
 268
 272
 268
 279
 217
 259
 291
 291
 281
 230
 276
 225
 282
 276
 289
 288
 268
 242
 283
 277
 285
 293
 248
 278
 285
 292
 282
 287
 277
 266
 268
 273
 270
 256
 297
 280
 256
 262
 268
 262
 293
 290
 274
 292
